%YAML 1.1
%TAG !u! tag:unity3d.com,2011:
--- !u!1 &2678139185610501152
GameObject:
  m_ObjectHideFlags: 0
  m_CorrespondingSourceObject: {fileID: 0}
  m_PrefabInstance: {fileID: 0}
  m_PrefabAsset: {fileID: 0}
  serializedVersion: 6
  m_Component:
  - component: {fileID: 4576055254135089398}
  - component: {fileID: 9086545564115767667}
  m_Layer: 0
  m_Name: leftHand
  m_TagString: Untagged
  m_Icon: {fileID: 0}
  m_NavMeshLayer: 0
  m_StaticEditorFlags: 0
  m_IsActive: 1
--- !u!4 &4576055254135089398
Transform:
  m_ObjectHideFlags: 0
  m_CorrespondingSourceObject: {fileID: 0}
  m_PrefabInstance: {fileID: 0}
  m_PrefabAsset: {fileID: 0}
  m_GameObject: {fileID: 2678139185610501152}
  m_LocalRotation: {x: 0, y: 0, z: 0, w: 1}
  m_LocalPosition: {x: 0, y: 0, z: 0}
  m_LocalScale: {x: 1, y: 1, z: 1}
  m_Children:
  - {fileID: 239221019638559739}
  m_Father: {fileID: 0}
  m_RootOrder: 0
  m_LocalEulerAnglesHint: {x: 0, y: 0, z: 0}
--- !u!95 &9086545564115767667
Animator:
  serializedVersion: 3
  m_ObjectHideFlags: 0
  m_CorrespondingSourceObject: {fileID: 0}
  m_PrefabInstance: {fileID: 0}
  m_PrefabAsset: {fileID: 0}
  m_GameObject: {fileID: 2678139185610501152}
  m_Enabled: 1
  m_Avatar: {fileID: 9000000, guid: ba519db81fc275644a76816221ebf5cf, type: 3}
  m_Controller: {fileID: 9100000, guid: 627498ec81f542e438afbe3249efd7fe, type: 2}
  m_CullingMode: 0
  m_UpdateMode: 0
  m_ApplyRootMotion: 0
  m_LinearVelocityBlending: 0
  m_WarningMessage: 
  m_HasTransformHierarchy: 1
  m_AllowConstantClipSamplingOptimization: 1
  m_KeepAnimatorControllerStateOnDisable: 0
--- !u!1001 &349973737306690576
PrefabInstance:
  m_ObjectHideFlags: 0
  serializedVersion: 2
  m_Modification:
    m_TransformParent: {fileID: 4576055254135089398}
    m_Modifications:
    - target: {fileID: -8679921383154817045, guid: ba519db81fc275644a76816221ebf5cf, type: 3}
      propertyPath: m_RootOrder
      value: 0
      objectReference: {fileID: 0}
    - target: {fileID: -8679921383154817045, guid: ba519db81fc275644a76816221ebf5cf, type: 3}
      propertyPath: m_LocalPosition.x
      value: 0
      objectReference: {fileID: 0}
    - target: {fileID: -8679921383154817045, guid: ba519db81fc275644a76816221ebf5cf, type: 3}
      propertyPath: m_LocalPosition.y
      value: 0
      objectReference: {fileID: 0}
    - target: {fileID: -8679921383154817045, guid: ba519db81fc275644a76816221ebf5cf, type: 3}
      propertyPath: m_LocalPosition.z
      value: 0
      objectReference: {fileID: 0}
    - target: {fileID: -8679921383154817045, guid: ba519db81fc275644a76816221ebf5cf, type: 3}
      propertyPath: m_LocalRotation.w
      value: 0.6607338
      objectReference: {fileID: 0}
    - target: {fileID: -8679921383154817045, guid: ba519db81fc275644a76816221ebf5cf, type: 3}
      propertyPath: m_LocalRotation.x
      value: 0.0039647664
      objectReference: {fileID: 0}
    - target: {fileID: -8679921383154817045, guid: ba519db81fc275644a76816221ebf5cf, type: 3}
      propertyPath: m_LocalRotation.y
      value: 0.0056823636
      objectReference: {fileID: 0}
    - target: {fileID: -8679921383154817045, guid: ba519db81fc275644a76816221ebf5cf, type: 3}
      propertyPath: m_LocalRotation.z
      value: 0.75058836
      objectReference: {fileID: 0}
    - target: {fileID: -8679921383154817045, guid: ba519db81fc275644a76816221ebf5cf, type: 3}
      propertyPath: m_LocalEulerAnglesHint.x
      value: -0.189
      objectReference: {fileID: 0}
    - target: {fileID: -8679921383154817045, guid: ba519db81fc275644a76816221ebf5cf, type: 3}
      propertyPath: m_LocalEulerAnglesHint.y
      value: 0.771
      objectReference: {fileID: 0}
    - target: {fileID: -8679921383154817045, guid: ba519db81fc275644a76816221ebf5cf, type: 3}
      propertyPath: m_LocalEulerAnglesHint.z
      value: 97.285
      objectReference: {fileID: 0}
    - target: {fileID: 919132149155446097, guid: ba519db81fc275644a76816221ebf5cf, type: 3}
      propertyPath: m_Name
      value: Hand
      objectReference: {fileID: 0}
    - target: {fileID: 5866666021909216657, guid: ba519db81fc275644a76816221ebf5cf, type: 3}
      propertyPath: m_Controller
      value: 
      objectReference: {fileID: 0}
    m_RemovedComponents: []
  m_SourcePrefab: {fileID: 100100000, guid: ba519db81fc275644a76816221ebf5cf, type: 3}
--- !u!4 &239221019638559739 stripped
Transform:
  m_CorrespondingSourceObject: {fileID: -8679921383154817045, guid: ba519db81fc275644a76816221ebf5cf, type: 3}
  m_PrefabInstance: {fileID: 349973737306690576}
  m_PrefabAsset: {fileID: 0}
